/user/hdfs/myTest.txt,0aa0f1eb0fd4a005124d6272f777a909
/user/hdfs/myTest2.txt,71e2ce7a30531c94475d23a0c1e801db
/user/hdfs/myTest3.txt,ec854dc0bc97bace3dff29c56e03383f
/user/hdfs/myTest4.txt,286f5f6b4ff32fb3c87387ee35f3c5d5
/user/hdfs/myTest5.txt,b62d3f05cc67341f4b61e43fe3dd7845
